Division,WeightClassKg,Place,Name,Team,BodyweightKg,Best3SquatKg,Best3BenchKg,Best3DeadliftKg,TotalKg,Equipment,Event,Sex
Junior Varsity,51.71,1,Ryan Yanez,Gregory-Portland,51.17,108.86,77.11,117.93,303.91,Single-ply,SBD,M
Junior Varsity,51.71,2,Andy Torres,Gregory-Portland,48.99,86.18,49.9,92.99,229.06,Single-ply,SBD,M
Junior Varsity,51.71,3,Ty Gayhart,Gregory-Portland,49.62,90.72,38.56,86.18,215.46,Single-ply,SBD,M
Junior Varsity,55.79,1,Ben Heard,Corpus Christi Calallen,53.98,115.67,63.5,133.81,312.98,Single-ply,SBD,M
Junior Varsity,55.79,2,Ruben Lopez,Orange Grove,52.34,102.06,61.23,120.2,283.5,Single-ply,SBD,M
Junior Varsity,55.79,3,Byron Davidson,Corpus Christi Calallen,54.52,99.79,56.7,127.01,283.5,Single-ply,SBD,M
Junior Varsity,55.79,4,Blake McCain,Corpus Christi Calallen,52.34,106.59,56.7,113.4,276.69,Single-ply,SBD,M
Junior Varsity,55.79,5,Brian Ruiz,Corpus Christi Calallen,54.34,97.52,58.97,117.93,274.42,Single-ply,SBD,M
Junior Varsity,59.87,1,Rico Rodriguez,San Diego,59.69,136.08,95.25,163.29,394.63,Single-ply,SBD,M
Junior Varsity,59.87,2,Rene Rubalcava,San Diego,56.79,151.95,83.91,140.61,376.48,Single-ply,SBD,M
Junior Varsity,59.87,3,Rogelio Santiago,Corpus Christi Calallen,57.24,117.93,74.84,158.76,351.53,Single-ply,SBD,M
Junior Varsity,67.13,4,Albert Salinas,Bishop,60.06,149.69,70.31,124.74,344.73,Single-ply,SBD,M
Junior Varsity,59.87,5,Ryan Johnson,Port Lavaca Calhoun,59.06,122.47,79.38,131.54,333.39,Single-ply,SBD,M
Junior Varsity,59.87,6,Hector Carrillo,Corpus Christi West Oso,59.6,127.01,61.23,140.61,328.85,Single-ply,SBD,M
Junior Varsity,59.87,7,Rayce Gatlin,Orange Grove,58.79,104.33,56.7,122.47,283.5,Single-ply,SBD,M
Junior Varsity,59.87,8,Dillon Herschap,Orange Grove,58.24,95.25,65.77,111.13,272.16,Single-ply,SBD,M
Junior Varsity,59.87,9,Patrick Torres,Ingleside,59.51,90.72,68.04,102.06,260.82,Single-ply,SBD,M
Junior Varsity,67.13,1,Jared Reilly,Corpus Christi Calallen,66.86,172.37,90.72,190.51,453.59,Single-ply,SBD,M
Junior Varsity,67.13,2,Josh Munoz,Beeville Jones,66.41,145.15,106.59,163.29,415.04,Single-ply,SBD,M
Junior Varsity,67.13,3,Andrew Cavazos,Corpus Christi West Oso,65.86,158.76,70.31,172.37,401.43,Single-ply,SBD,M
Junior Varsity,67.13,4,Roy Valdez,Orange Grove,60.42,149.69,83.91,163.29,396.89,Single-ply,SBD,M
Junior Varsity,67.13,5,Jacob Adame,Ingleside,65.59,161.03,99.79,136.08,396.89,Single-ply,SBD,M
Junior Varsity,67.13,6,Dillon Torres,Beeville Jones,64.68,136.08,81.65,161.03,378.75,Single-ply,SBD,M
Junior Varsity,67.13,7,Julian Salas,Orange Grove,66.32,142.88,92.99,140.61,376.48,Single-ply,SBD,M
Junior Varsity,67.13,8,Austin Castillo,Corpus Christi Calallen,66.95,122.47,79.38,158.76,360.61,Single-ply,SBD,M
Junior Varsity,67.13,9,Josh Stich,Corpus Christi Tuloso-Midway,62.6,113.4,72.57,131.54,317.51,Single-ply,SBD,M
Junior Varsity,67.13,10,Lorenzo Landin,Gregory-Portland,66.59,120.2,63.5,129.27,312.98,Single-ply,SBD,M
Junior Varsity,67.13,11,Balta Ramirez,San Diego,63.82,113.4,63.5,129.27,306.17,Single-ply,SBD,M
Junior Varsity,67.13,12,Kyle Halderman,Gregory-Portland,62.41,104.33,68.04,129.27,301.64,Single-ply,SBD,M
Junior Varsity,67.13,13,Tyler Pastrano,San Diego,62.51,104.33,61.23,113.4,278.96,Single-ply,SBD,M
Junior Varsity,67.13,14,Tyler Maresh,Orange Grove,63.23,106.59,61.23,111.13,278.96,Single-ply,SBD,M
Junior Varsity,67.13,15,Vincent Valdez,Aransas Pass,65.86,102.06,56.7,115.67,274.42,Single-ply,SBD,M
Junior Varsity,67.13,16,Michael Boudreaux,Port Lavaca Calhoun,66.95,104.33,68.04,99.79,272.16,Single-ply,SBD,M
Junior Varsity,67.13,DQ,Carlos Carrasco,Port Lavaca Calhoun,67.13,,,,,Single-ply,SBD,M
Junior Varsity,67.13,DQ,Ryan Rojas,Corpus Christi Tuloso-Midway,60.51,102.06,63.5,,,Single-ply,SBD,M
Junior Varsity,74.84,1,Nathan Hawthorne,Port Lavaca Calhoun,71.4,174.63,113.4,158.76,446.79,Single-ply,SBD,M
Junior Varsity,74.84,2,Marcus Klamm,Port Lavaca Calhoun,74.21,158.76,102.06,181.44,442.25,Single-ply,SBD,M
Junior Varsity,74.84,3,Victor Ta,Port Lavaca Calhoun,74.39,174.63,86.18,174.63,435.45,Single-ply,SBD,M
Junior Varsity,74.84,4,Christian Stiles,Corpus Christi Calallen,68.58,156.49,83.91,181.44,421.84,Single-ply,SBD,M
Junior Varsity,74.84,5,Robert Moctezuma,San Diego,73.94,154.22,90.72,151.95,396.89,Single-ply,SBD,M
Junior Varsity,74.84,6,David Perez,Bishop,74.3,158.76,92.99,145.15,396.89,Single-ply,SBD,M
Junior Varsity,74.84,7,Russell Hinojosa,Beeville Jones,68.58,149.69,95.25,142.88,387.82,Single-ply,SBD,M
Junior Varsity,74.84,8,Matthew Meave,Corpus Christi West Oso,69.31,158.76,74.84,151.95,385.55,Single-ply,SBD,M
Junior Varsity,74.84,9,Chris Hernandez,Gregory-Portland,67.77,136.08,72.57,154.22,362.87,Single-ply,SBD,M
Junior Varsity,74.84,10,Jamie Mendoza,Ingleside,74.84,131.54,77.11,149.69,358.34,Single-ply,SBD,M
Junior Varsity,74.84,11,Pablo Garza,Gregory-Portland,70.22,127.01,81.65,142.88,351.53,Single-ply,SBD,M
Junior Varsity,74.84,12,Alex Poe,Orange Grove,67.68,122.47,65.77,145.15,333.39,Single-ply,SBD,M
Junior Varsity,74.84,13,Rickey De La Paz,San Diego,72.67,108.86,74.84,131.54,315.25,Single-ply,SBD,M
Junior Varsity,74.84,14,Taylor Schwartz,Corpus Christi Calallen,73.75,92.99,70.31,120.2,283.5,Single-ply,SBD,M
Junior Varsity,74.84,DQ,Chad McQueen,Orange Grove,71.49,104.33,,,,Single-ply,SBD,M
Junior Varsity,82.1,1,Danny Snodgrass,Ingleside,80.2,183.7,113.4,176.9,474,Single-ply,SBD,M
Junior Varsity,82.1,2,Phillip Barrientos,Bishop,80.29,145.15,95.25,163.29,403.7,Single-ply,SBD,M
Junior Varsity,82.1,3,Alex Aquirre,Gregory-Portland,77.75,163.29,92.99,145.15,401.43,Single-ply,SBD,M
Junior Varsity,82.1,4,Joe Castillo #1,Corpus Christi West Oso,80.47,158.76,65.77,140.61,365.14,Single-ply,SBD,M
Junior Varsity,82.1,5,Ivie Gutierrez,Mathis,75.48,142.88,77.11,127.01,347,Single-ply,SBD,M
Junior Varsity,82.1,6,Justin Herrera,Orange Grove,81.65,113.4,86.18,131.54,331.12,Single-ply,SBD,M
Junior Varsity,82.1,7,Riley Richardson,Gregory-Portland,77.02,113.4,68.04,145.15,326.59,Single-ply,SBD,M
Junior Varsity,82.1,8,Jeremiah Keever,Bishop,77.38,136.08,61.23,113.4,310.71,Single-ply,SBD,M
Junior Varsity,82.1,9,Brian Hall #1,Orange Grove,75.75,102.06,61.23,133.81,297.1,Single-ply,SBD,M
Junior Varsity,82.1,10,Matthew Cantu,San Diego,77.75,104.33,63.5,97.52,265.35,Single-ply,SBD,M
Junior Varsity,82.1,DQ,Chris Gonzales #4,Orange Grove,77.93,111.13,,,,Single-ply,SBD,M
Junior Varsity,89.81,1,Jose Saucedo,Port Lavaca Calhoun,86.36,231.33,151.95,208.65,591.94,Single-ply,SBD,M
Junior Varsity,89.81,2,Luis Lopez #3,San Diego,87.82,235.87,129.27,204.12,569.26,Single-ply,SBD,M
Junior Varsity,89.81,3,Nick Pacheco,Bishop,87.82,219.99,83.91,199.58,503.49,Single-ply,SBD,M
Junior Varsity,89.81,4,Alex Tanguma,Corpus Christi Calallen,83.1,163.29,122.47,195.04,480.81,Single-ply,SBD,M
Junior Varsity,89.81,5,Aric Gamez,Beeville Jones,84.1,190.51,95.25,174.63,460.4,Single-ply,SBD,M
Junior Varsity,89.81,6,Thomas Ovalle,Port Lavaca Calhoun,87.45,174.63,108.86,172.37,455.86,Single-ply,SBD,M
Junior Varsity,89.81,7,Luis Guerra,Bishop,83.55,181.44,83.91,185.97,451.32,Single-ply,SBD,M
Junior Varsity,89.81,8,Fernando Flores,Corpus Christi Tuloso-Midway,84.73,147.42,97.52,201.85,446.79,Single-ply,SBD,M
Junior Varsity,89.81,9,Jonathan Chavera,Port Lavaca Calhoun,86.45,170.1,99.79,149.69,419.57,Single-ply,SBD,M
Junior Varsity,89.81,10,Ben Burkett,Gregory-Portland,84.19,147.42,90.72,145.15,383.29,Single-ply,SBD,M
Junior Varsity,89.81,11,Zakary Gonzales,Orange Grove,85.73,149.69,70.31,129.27,349.27,Single-ply,SBD,M
Junior Varsity,89.81,12,Javier Reynaga,Corpus Christi Calallen,89.45,99.79,65.77,124.74,290.3,Single-ply,SBD,M
Junior Varsity,89.81,13,Justin Lucio,Gregory-Portland,86.82,86.18,54.43,104.33,244.94,Single-ply,SBD,M
Junior Varsity,89.81,DQ,Rick Gutierrez,Bishop,88.09,170.1,83.91,,,Single-ply,SBD,M
Junior Varsity,99.79,1,Michael Wiser,Corpus Christi Calallen,96.62,156.49,113.4,201.85,471.74,Single-ply,SBD,M
Junior Varsity,99.79,2,Truman Jenkins,Rockport-Fulton,96.43,154.22,92.99,165.56,412.77,Single-ply,SBD,M
Junior Varsity,99.79,3,Mark Hinojosa,Bishop,90.36,142.88,81.65,145.15,369.68,Single-ply,SBD,M
Junior Varsity,99.79,4,Russell Sullivan,Corpus Christi Calallen,97.98,124.74,72.57,149.69,347,Single-ply,SBD,M
Junior Varsity,99.79,5,Jared Davenport,Rockport-Fulton,91.53,106.59,72.57,147.42,326.59,Single-ply,SBD,M
Junior Varsity,109.77,1,Matt Salazar,Corpus Christi Tuloso-Midway,100.79,233.6,129.27,204.12,566.99,Single-ply,SBD,M
Junior Varsity,109.77,2,Joseph Avita,Ingleside,100.61,215.46,124.74,163.29,503.49,Single-ply,SBD,M
Junior Varsity,109.77,3,Robert Botello,Corpus Christi Calallen,106.14,165.56,104.33,190.51,460.4,Single-ply,SBD,M
Junior Varsity,109.77,4,Jesse Romero,Rockport-Fulton,105.05,183.7,92.99,174.63,451.32,Single-ply,SBD,M
Junior Varsity,109.77,5,Cordell Echols,Ingleside,102.42,170.1,102.06,142.88,415.04,Single-ply,SBD,M
Junior Varsity,109.77,6,Michael Gortemiller,Aransas Pass,104.05,151.95,102.06,136.08,390.09,Single-ply,SBD,M
Junior Varsity,109.77,7,Donald Chapman,Rockport-Fulton,101.33,131.54,95.25,145.15,371.95,Single-ply,SBD,M
Junior Varsity,109.77,DQ,Christian Litzey,Port Lavaca Calhoun,107.14,,,,,Single-ply,SBD,M
Junior Varsity,109.77,DQ,David Silva,Corpus Christi Calallen,105.78,,,,,Single-ply,SBD,M
Junior Varsity,109.77,DQ,Matthew Moya,Corpus Christi West Oso,104.05,113.4,,,,Single-ply,SBD,M
Junior Varsity,109.77,DQ,Kristopher Gebert,Orange Grove,107.05,,,,,Single-ply,SBD,M
Junior Varsity,109.77,DQ,Jacob Moreno,Mathis,107.5,,,,,Single-ply,SBD,M
Junior Varsity,109.77,DQ,Joey Villesca,Orange Grove,106.96,,,,,Single-ply,SBD,M
Junior Varsity,124.74,1,Manuel Villalobos,Corpus Christi Calallen,117.48,190.51,138.35,183.7,512.56,Single-ply,SBD,M
Junior Varsity,124.74,2,Eric Soliz,Rockport-Fulton,116.66,158.76,102.06,158.76,419.57,Single-ply,SBD,M
Junior Varsity,124.74,3,Dillon Garza,Orange Grove,112.49,81.65,63.5,79.38,224.53,Single-ply,SBD,M
Junior Varsity,124.74+,1,Christian Zuniga,Rockport-Fulton,127.91,188.24,108.86,174.63,471.74,Single-ply,SBD,M
Junior Varsity,124.74+,2,Sergio Garcia,Corpus Christi Calallen,130.91,192.78,90.72,158.76,442.25,Single-ply,SBD,M
Junior Varsity,124.74+,DQ,Adam Aleman,Beeville Jones,147.42,244.94,,,,Single-ply,SBD,M
Varsity,51.71,1,Robert Chapa,Gregory-Portland,51.62,145.15,86.18,172.37,403.7,Single-ply,SBD,M
Varsity,51.71,2,Gilbert Sanchez,San Diego,51.17,147.42,90.72,145.15,383.29,Single-ply,SBD,M
Varsity,51.71,3,Bruizer Del Bosque,Bishop,46.08,142.88,81.65,142.88,367.41,Single-ply,SBD,M
Varsity,51.71,4,Thomas Soto,Corpus Christi Calallen,49.9,136.08,65.77,165.56,367.41,Single-ply,SBD,M
Varsity,51.71,5,Pete Villarreal,Sinton,48.63,120.2,81.65,129.27,331.12,Single-ply,SBD,M
Varsity,51.71,6,Jonathan Starks,Banquete,51.44,104.33,63.5,113.4,281.23,Single-ply,SBD,M
Varsity,51.71,7,Buster Dodge,Refugio,47.72,92.99,43.09,97.52,233.6,Single-ply,SBD,M
Varsity,55.79,1,Travis Charles,Bishop,55.7,163.29,81.65,172.37,417.3,Single-ply,SBD,M
Varsity,55.79,2,Justin Breland,Banquete,55.34,138.35,97.52,172.37,408.23,Single-ply,SBD,M
Varsity,55.79,3,Daniel Chapa,Gregory-Portland,51.98,129.27,90.72,163.29,383.29,Single-ply,SBD,M
Varsity,55.79,4,Jeff Kearnes,Gregory-Portland,55.61,140.61,81.65,154.22,376.48,Single-ply,SBD,M
Varsity,55.79,5,Andrew Garlin,Skidmore-Tynan,55.16,129.27,86.18,142.88,358.34,Single-ply,SBD,M
Varsity,55.79,6,Robert Seward,Corpus Christi Calallen,54.98,122.47,74.84,145.15,342.46,Single-ply,SBD,M
Varsity,55.79,7,Donovan Wilson,Aransas Pass,54.43,140.61,65.77,117.93,324.32,Single-ply,SBD,M
Varsity,55.79,8,Victor Vera,Kingsville King,53.98,86.18,49.9,111.13,247.21,Single-ply,SBD,M
Varsity,55.79,DQ,Ediberto Vera,Mathis,55.25,117.93,,,,Single-ply,SBD,M
Varsity,67.13,1,Roger Garcia,Banquete,59.96,195.04,95.25,199.58,489.88,Single-ply,SBD,M
Varsity,59.87,2,Given McClure,Corpus Christi Calallen,59.15,158.76,102.06,192.78,453.59,Single-ply,SBD,M
Varsity,59.87,3,Aaron Gonzales,Mathis,59.15,158.76,81.65,185.97,426.38,Single-ply,SBD,M
Varsity,67.13,4,Richard Brown #4,Orange Grove,60.06,149.69,77.11,142.88,369.68,Single-ply,SBD,M
Varsity,59.87,5,Justin Gonzalez,San Diego,57.97,136.08,83.91,136.08,356.07,Single-ply,SBD,M
Varsity,59.87,6,Brandon Thompson,Refugio,59.24,129.27,74.84,133.81,337.93,Single-ply,SBD,M
Varsity,67.13,7,Arnold Bueno,Banquete,60.06,120.2,79.38,136.08,335.66,Single-ply,SBD,M
Varsity,59.87,8,Matt Sanchez,Kingsville King,57.42,90.72,68.04,117.93,276.69,Single-ply,SBD,M
Varsity,67.13,1,Dalton Torres,Beeville Jones,63.96,210.92,120.2,190.51,521.63,Single-ply,SBD,M
Varsity,67.13,2,Ryan Gomez,Corpus Christi Calallen,63.96,183.7,122.47,195.04,501.22,Single-ply,SBD,M
Varsity,67.13,3,Raymond Lopez,Taft,60.33,179.17,111.13,201.85,492.15,Single-ply,SBD,M
Varsity,67.13,4,Gino Dodge,Refugio,65.14,197.31,111.13,183.7,492.15,Single-ply,SBD,M
Varsity,67.13,5,JJ Gonzalez,Gregory-Portland,60.33,181.44,106.59,192.78,480.81,Single-ply,SBD,M
Varsity,67.13,6,Eddie Garcia,Banquete,64.59,158.76,92.99,201.85,453.59,Single-ply,SBD,M
Varsity,67.13,7,Jacob Romero,Rockport-Fulton,66.13,165.56,97.52,165.56,428.64,Single-ply,SBD,M
Varsity,67.13,8,Jay Trevino,Banquete,66.32,145.15,104.33,167.83,417.3,Single-ply,SBD,M
Varsity,67.13,9,Tony Vivone,Gregory-Portland,66.68,167.83,77.11,158.76,403.7,Single-ply,SBD,M
Varsity,67.13,10,Bj Ripoyla,Kingsville King,65.68,161.03,90.72,142.88,394.63,Single-ply,SBD,M
Varsity,67.13,DQ,Phong Tran,Rockport-Fulton,65.32,183.7,111.13,,,Single-ply,SBD,M
Varsity,67.13,DQ,Glenn Wineman,Refugio,60.65,,,,,Single-ply,SBD,M
Varsity,74.84,DQ,Kelton Craven,Orange Grove,67.31,176.9,,,,Single-ply,SBD,M
Varsity,74.84,1,Zach Garza,Corpus Christi Calallen,73.66,244.94,142.88,258.55,646.37,Single-ply,SBD,M
Varsity,74.84,2,Marty Saenz,San Diego,74.12,242.67,120.2,235.87,598.74,Single-ply,SBD,M
Varsity,74.84,3,Nocky Garza,Bishop,74.12,226.8,129.27,213.19,569.26,Single-ply,SBD,M
Varsity,74.84,4,Jermiah Puentes,Beeville Jones,73.84,208.65,124.74,219.99,553.38,Single-ply,SBD,M
Varsity,74.84,5,Brandon Castillo,Corpus Christi Calallen,72.67,199.58,122.47,229.06,551.11,Single-ply,SBD,M
Varsity,74.84,6,Ryan Torres,Gregory-Portland,74.66,195.04,133.81,213.19,542.04,Single-ply,SBD,M
Varsity,74.84,7,Alex Gonzalez #2,Skidmore-Tynan,67.68,226.8,102.06,199.58,528.44,Single-ply,SBD,M
Varsity,74.84,8,Javi Rojas,Kingsville King,74.75,192.78,113.4,217.72,523.9,Single-ply,SBD,M
Varsity,74.84,9,Nick Fisher #2,Rockport-Fulton,71.49,195.04,99.79,206.38,501.22,Single-ply,SBD,M
Varsity,74.84,10,Draigon Silvas,Refugio,71.03,195.04,113.4,172.37,480.81,Single-ply,SBD,M
Varsity,74.84,11,Mario Davila,Aransas Pass,74.39,161.03,111.13,174.63,446.79,Single-ply,SBD,M
Varsity,74.84,12,Jp Escobar,Bishop,67.95,154.22,108.86,181.44,444.52,Single-ply,SBD,M
Varsity,74.84,13,Tyler Wright,Orange Grove,70.94,142.88,86.18,201.85,430.91,Single-ply,SBD,M
Varsity,74.84,14,Moses Rios,Mathis,69.67,167.83,88.45,161.03,417.3,Single-ply,SBD,M
Varsity,74.84,15,David Su,Kingsville King,72.85,95.25,79.38,136.08,310.71,Single-ply,SBD,M
Varsity,82.1,DQ,Ryan Rodriguez,Odem,74.93,217.72,142.88,,,Single-ply,SBD,M
Varsity,82.1,1,Raydell Perez,Ingleside,82.01,226.8,176.9,249.48,653.17,Single-ply,SBD,M
Varsity,82.1,2,Gabriel Longoria,Corpus Christi Calallen,82.1,249.48,147.42,231.33,628.23,Single-ply,SBD,M
Varsity,82.1,3,Kirk Salinas,Banquete,80.92,213.19,124.74,197.31,535.24,Single-ply,SBD,M
Varsity,82.1,4,Fabian Gonzales,Kingsville King,78.2,192.78,113.4,192.78,498.95,Single-ply,SBD,M
Varsity,82.1,5,Ramsey Rivera,Corpus Christi West Oso,80.56,183.7,97.52,190.51,471.74,Single-ply,SBD,M
Varsity,82.1,6,Jake Henderson,Refugio,80.1,158.76,97.52,158.76,415.04,Single-ply,SBD,M
Varsity,82.1,7,Ryan Cisneros,Woodsboro,77.02,120.2,92.99,161.03,374.21,Single-ply,SBD,M
Varsity,82.1,8,Faustino Alaniz,Banquete,77.93,127.01,68.04,156.49,351.53,Single-ply,SBD,M
Varsity,82.1,9,Jd Benevides,Odem,75.84,136.08,83.91,124.74,344.73,Single-ply,SBD,M
Varsity,82.1,DQ,Andrew Reyes,Rockport-Fulton,80.01,,,,,Single-ply,SBD,M
Varsity,82.1,DQ,Jose Tovar,Sinton,82.01,,,,,Single-ply,SBD,M
Varsity,82.1,DQ,Genaro Trevino,Beeville Jones,80.56,,,,,Single-ply,SBD,M
Varsity,89.81,1,Allan Grove,Ingleside,89.27,249.48,147.42,242.67,639.57,Single-ply,SBD,M
Varsity,89.81,2,John Baldwin,Corpus Christi West Oso,86.82,247.21,145.15,235.87,628.23,Single-ply,SBD,M
Varsity,89.81,3,Lazaro Smith,Beeville Jones,89.18,254.01,140.61,233.6,628.23,Single-ply,SBD,M
Varsity,89.81,4,Steven Chavez,Aransas Pass,86.45,219.99,120.2,190.51,530.7,Single-ply,SBD,M
Varsity,89.81,5,Justin DeLeon,Mathis,89.45,190.51,90.72,206.38,487.61,Single-ply,SBD,M
Varsity,89.81,6,Carlos Hernandez #12,Corpus Christi West Oso,83.91,185.97,111.13,183.7,480.81,Single-ply,SBD,M
Varsity,89.81,7,James Sims,Rockport-Fulton,84.55,183.7,102.06,183.7,469.47,Single-ply,SBD,M
Varsity,89.81,8,Garrett New,Orange Grove,85.46,179.17,92.99,183.7,455.86,Single-ply,SBD,M
Varsity,89.81,9,Adan Serda,Odem,82.74,147.42,106.59,147.42,401.43,Single-ply,SBD,M
Varsity,99.79,10,Levi Miller,Sinton,89.9,133.81,102.06,151.95,387.82,Single-ply,SBD,M
Varsity,89.81,DQ,Leroy Cardenas,Odem,84.01,,,,,Single-ply,SBD,M
Varsity,99.79,1,Eddie Hernandez,Ingleside,99.7,244.94,163.29,251.74,659.98,Single-ply,SBD,M
Varsity,99.79,2,Nathan Westbrook,Kingsville King,98.16,247.21,165.56,233.6,646.37,Single-ply,SBD,M
Varsity,99.79,3,Israel Garcia,Kingsville King,98.25,215.46,120.2,195.04,530.7,Single-ply,SBD,M
Varsity,99.79,4,Seferino Vargas,Refugio,92.44,226.8,111.13,188.24,526.17,Single-ply,SBD,M
Varsity,99.79,5,Ruben Ramirez,Aransas Pass,96.71,183.7,115.67,201.85,501.22,Single-ply,SBD,M
Varsity,99.79,6,Paul Gonzalez,Banquete,96.89,195.04,97.52,204.12,496.68,Single-ply,SBD,M
Varsity,99.79,7,Eric Carroll,Rockport-Fulton,96.98,176.9,113.4,190.51,480.81,Single-ply,SBD,M
Varsity,99.79,8,Nick Trevino #2,Kingsville King,97.89,172.37,97.52,208.65,478.54,Single-ply,SBD,M
Varsity,99.79,9,Jesse Gomez,Kingsville King,95.07,158.76,115.67,195.04,469.47,Single-ply,SBD,M
Varsity,99.79,10,Josh Perez,Sinton,97.25,158.76,142.88,165.56,467.2,Single-ply,SBD,M
Varsity,99.79,11,Joshua Pina,Odem,98.34,181.44,136.08,142.88,460.4,Single-ply,SBD,M
Varsity,99.79,12,Adrian Garcia,Corpus Christi West Oso,90.72,170.1,104.33,167.83,442.25,Single-ply,SBD,M
Varsity,99.79,DQ,Eric Viafranco,Mathis,95.53,,,,,Single-ply,SBD,M
Varsity,99.79,DQ,Tyler Thompson,Sinton,92.62,,,,,Single-ply,SBD,M
Varsity,99.79,DQ,Mario Rivera,Mathis,98.43,226.8,115.67,,,Single-ply,SBD,M
Varsity,109.77,1,Oscar Ortiz,Orange Grove,100.15,281.23,145.15,258.55,684.92,Single-ply,SBD,M
Varsity,109.77,2,Cecilio Zarate,Corpus Christi West Oso,107.41,272.16,145.15,222.26,639.57,Single-ply,SBD,M
Varsity,109.77,3,John Herrera,Banquete,105.87,240.4,145.15,231.33,616.89,Single-ply,SBD,M
Varsity,124.74,4,Aaron Liserio,Mathis,109.86,263.08,115.67,226.8,605.55,Single-ply,SBD,M
Varsity,109.77,5,Cody Morris,Corpus Christi Calallen,102.51,231.33,120.2,238.14,589.67,Single-ply,SBD,M
Varsity,109.77,6,Jarred Longerot,Mathis,103.33,235.87,117.93,231.33,585.13,Single-ply,SBD,M
Varsity,109.77,7,Frank Trevino,San Diego,107.32,231.33,127.01,215.46,573.79,Single-ply,SBD,M
Varsity,109.77,8,Steven Chapa,Kingsville King,105.78,229.06,145.15,195.04,569.26,Single-ply,SBD,M
Varsity,109.77,9,Ramiro Montalvo,Orange Grove,107.41,217.72,133.81,190.51,542.04,Single-ply,SBD,M
Varsity,109.77,10,Dj Cowger,Bishop,100.97,210.92,129.27,190.51,530.7,Single-ply,SBD,M
Varsity,109.77,11,Justin Ybarra,Corpus Christi West Oso,108.86,219.99,111.13,197.31,528.44,Single-ply,SBD,M
Varsity,109.77,12,Roy Aguilar,Orange Grove,107.86,183.7,113.4,206.38,503.49,Single-ply,SBD,M
Varsity,109.77,13,Jerry Ruiz,Gregory-Portland,106.14,181.44,108.86,188.24,478.54,Single-ply,SBD,M
Varsity,109.77,14,Christian Garcia,Sinton,109.13,163.29,104.33,163.29,430.91,Single-ply,SBD,M
Varsity,124.74,1,Taylor Henning,Refugio,115.85,226.8,151.95,210.92,589.67,Single-ply,SBD,M
Varsity,124.74,2,Jose Molina,Skidmore-Tynan,116.85,233.6,140.61,204.12,578.33,Single-ply,SBD,M
Varsity,124.74,3,Mario Alaniz,San Diego,118.93,219.99,115.67,226.8,562.45,Single-ply,SBD,M
Varsity,124.74,4,David Lewis,Kingsville King,114.31,183.7,117.93,204.12,505.76,Single-ply,SBD,M
Varsity,124.74,DQ,Antonio Galvan,Aransas Pass,112.31,226.8,108.86,,,Single-ply,SBD,M
Varsity,124.74,DQ,Joseph Solis,Rockport-Fulton,112.22,,,,,Single-ply,SBD,M
Varsity,124.74,DQ,Ryan Colmenero,Mathis,118.48,213.19,97.52,,,Single-ply,SBD,M
Varsity,124.74+,1,Steven Flanigan,Ingleside,135.44,290.3,170.1,215.46,675.85,Single-ply,SBD,M
Varsity,124.74+,2,Miguel Estrada,Rockport-Fulton,133.45,249.48,163.29,258.55,671.32,Single-ply,SBD,M
Varsity,124.74+,3,Matt Hernandez,Skidmore-Tynan,137.44,226.8,188.24,215.46,630.49,Single-ply,SBD,M
Varsity,124.74+,4,Ruben DelBosque,Mathis,146.6,274.42,102.06,226.8,603.28,Single-ply,SBD,M
Varsity,124.74+,5,Andrew Williams,Rockport-Fulton,149.5,244.94,136.08,192.78,573.79,Single-ply,SBD,M
Varsity,124.74+,6,Dylan Strickland,Corpus Christi Calallen,130,231.33,120.2,219.99,571.53,Single-ply,SBD,M
Varsity,124.74+,7,Steven Rodriguez,Corpus Christi Calallen,132.36,226.8,127.01,185.97,539.77,Single-ply,SBD,M
Varsity,124.74+,8,Josh Moreno,Mathis,131.09,235.87,113.4,185.97,535.24,Single-ply,SBD,M
Varsity,124.74+,9,Ryan Gutierrez,Rockport-Fulton,131.54,204.12,117.93,174.63,496.68,Single-ply,SBD,M
Varsity,124.74+,10,Jaren Smith,Refugio,128.73,183.7,111.13,181.44,476.27,Single-ply,SBD,M
Varsity,124.74+,DQ,Oscar Ortiz,Orange Grove,134.26,,,,,Single-ply,SBD,M
Varsity,124.74+,DQ,JJ Galvan,Orange Grove,140.07,229.06,,,,Single-ply,SBD,M
Varsity,124.74+,DQ,John Reyea,Sinton,136.8,183.7,102.06,,,Single-ply,SBD,M
Varsity,124.74+,DQ,Matt Jones #8,Ingleside,128.73,281.23,,,,Single-ply,SBD,M
