Name,Sex,Age,BodyweightKg,WeightClassKg,Division,Equipment,Event,Squat1Kg,Squat2Kg,Squat3Kg,Squat4Kg,Best3SquatKg,Bench1Kg,Bench2Kg,Bench3Kg,Bench4Kg,Best3BenchKg,Deadlift1Kg,Deadlift2Kg,Deadlift3Kg,Deadlift4Kg,Best3DeadliftKg,TotalKg,Place
Mark Lynock,M,50,107.5,110,M-M3,Wraps,SBD,155,177.5,,,177.5,80,87.5,95,,95,165,180,190,,190,462.5,1
Nicholas O'Connell-Smith,M,28,108,110,M-O,Wraps,SBD,200,220,-230,,220,125,140,-150,,140,200,225,245,,245,605,9
George Kolar,M,18,108.5,110,M-T3,Wraps,SBD,250,255,-260,,255,140,145,150,,150,230,240,-255,,240,645,1
Thomas Grant,M,32,103.9,110,M-O,Wraps,SBD,245,255,262.5,,262.5,142.5,150,157.5,,157.5,220,235,260,,260,680,5
Paul Edwards,M,32,97.5,100,M-O,Wraps,SBD,210,220,-230,,220,105,110,115,,115,250,260,272.5,,272.5,607.5,7
Ben Elliott,M,38,98,100,M-O,Wraps,SBD,240,260,-272.5,,260,160,170,-180,,170,250,260,272.5,,272.5,702.5,4
Pardeep Singh Sadhra,M,45,126.5,140,M-M2,Wraps,SBD,230,-245,245,,245,140,-150,-150,,140,260,-280,-290,,260,645,1
Alan Wilson,M,38,98.4,100,M-O,Wraps,SBD,285,300,305,,305,137.5,140,145,,145,270,290,-300,,290,740,1
Paul Smith,M,43,109,110,M-M1,Wraps,SBD,240,250,255,,255,150,155,160,,160,280,292.5,-300,,292.5,707.5,1
Adam Riman,M,26,103.7,110,M-O,Wraps,SBD,270,290,300,,300,115,120,122.5,,122.5,300,312.5,-320,,312.5,735,2
Daniel Tallis,M,33,109.5,110,M-O,Wraps,SBD,-255,255,270,,270,147.5,155,160,,160,305,-320,-320,,305,735,3
William Hinton,M,24,108.25,110,M-O,Raw,B,,,,,,190,200,-205,,200,,,,,,200,1
James Cox #1,M,39,107.9,110,M-O-E,Multi-ply,B,,,,,,-220,-220,-227.5,,,,,,,,,DQ
Fraser Friseal,M,40,113.1,125,M-M1,Wraps,S,210,-215,,,210,,,,,,,,,,,210,1
Lily Coward,F,17,51.6,52,F-T2,Wraps,SBD,55,60,65,,65,25,27.5,-30,,27.5,85,-87.5,87.5,,87.5,180,1
Davina Appiah,F,37,43.8,44,F-O,Wraps,SBD,60,70,75.5,77.5,75.5,30,35,40,-45.5,40,90,100,105.5,110,105.5,221,2
Claire Turner,F,36,60,60,F-O,Wraps,SBD,80,-90,-90,,80,45,50,52.5,,52.5,90,100,105,,105,237.5,8
Maxine Bland,F,38,59.2,60,F-O,Wraps,SBD,75,85,-95,,85,47.5,-52.5,-52.5,,47.5,95,102.5,-110,,102.5,235,7
Catriona Meechan,F,28,59.4,60,F-O,Wraps,SBD,85,95,-105,,95,50,55,-60,,55,112.5,-125,125,,125,275,5
Amber Knowles,F,31,72.9,75,F-O,Wraps,SBD,100,110,-115,,110,47.5,52.5,-55,,52.5,135,145,-147.5,,145,307.5,6
Leanne Plank,F,31,65,67.5,F-O,Wraps,SBD,117.5,125,132.5,,132.5,55,57.5,60,,60,140,147.5,155,,155,347.5,3
Alex Salvaggio,M,21,59.1,60,M-J,Wraps,SBD,125,-130,130,,130,70,80,82.5,,82.5,140,150,157.5,,157.5,370,2
Roselyn Dike,F,36,78.4,82.5,F-O,Wraps,SBD,140,150,160,,160,55,62.5,-67.5,,62.5,-145,145,160,,160,382.5,4
Jessica Parish,F,41,67.5,67.5,F-M1,Wraps,SBD,90,100,105,,105,70,80,85,,85,150,160,170,,170,360,1
Catherine Croydon,F,28,93.3,110,F-O,Wraps,SBD,-180,180,-190,,180,125,135,142.5,-145,142.5,160,185,192.5,,192.5,515,1
Graham Dowers,M,55,67.5,67.5,M-M4,Raw,BD,,,,,,125,136,140,,140,190,200,205,,205,345,1
Shane Cahill #1,M,35,65.4,67.5,M-O,Raw,B,,,,,,92.5,100,-107.5,,100,,,,,,100,1
David Mannering #1,M,59,74.6,75,M-M4-E,Multi-ply,SBD,250,-272.5,272.5,,272.5,150,162.5,180,,180,115,200,-235,,200,652.5,1
Michael Eve,M,59,80.6,82.5,M-M4,Wraps,SBD,90,105,-115,,105,80,90,-100,,90,120,140,150,,150,345,1
Harry Linton,M,14,80,82.5,M-T1,Wraps,SBD,120,130,145,,145,-80,80,87.5,,87.5,130,145,160,,160,392.5,1
Mark Cray,M,36,74.4,75,M-O,Wraps,SBD,130,140,147.5,,147.5,100,110,-112.5,,110,160,175,185,,185,442.5,14
Dale Monagle,M,29,88,90,M-O,Wraps,SBD,-150,150,-170,,150,100,-120,-120,,100,170,200,-220,,200,450,16
Tyler Davis,M,31,80.4,82.5,M-O,Wraps,SBD,140,150,165,,165,-100,100,-110,,100,180,190,200,,200,465,15
Andrew Day,M,33,81.2,82.5,M-O,Wraps,SBD,100,140,160,,160,120,-130,-130,,120,180,190,200,,200,480,12
Jack Crook,M,24,82.3,82.5,M-O,Wraps,SBD,160,-170,170,,170,-100,100,115,,115,180,200,-220,,200,485,13
Luke Bland,M,37,74.5,75,M-O,Wraps,SBD,175,190,200,,200,125,135,-140,,135,185,210,-220,,210,545,6
Henry Pucknell,M,28,80.3,82.5,M-O,Wraps,SBD,150,170,-180,,170,-95,100,-110,,100,190,200,210,,210,480,11
Samuel Kolar,M,20,90,90,M-J,Wraps,SBD,185,195,200,,200,105,110,112.5,,112.5,200,210,-220,,210,522.5,3
Ryan Millard,M,29,87,90,M-O,Wraps,SBD,180,190,-205,,190,120,130,-142.5,,130,200,220,232.5,,232.5,552.5,8
Matthew Belletty,M,26,82.3,82.5,M-O,Wraps,SBD,160,-180,-180,,160,110,-120,-120,,110,210,220,-230,,220,490,10
Georgio Saphiris,M,23,81.9,82.5,M-J,Wraps,SBD,210,-220,-220,,210,130,-140,140,,140,220,240,260,,260,610,1
